{
	"process_id" : 57510,
	"version" : "2021.1.6f1",
	"app_path" : "/Applications/Unity/Hub/Editor/2021.1.6f1/Unity.app",
	"app_contents_path" : "/Applications/Unity/Hub/Editor/2021.1.6f1/Unity.app/Contents"
}